{
  "name": "",
  "css_prefix_text": "",
  "css_use_suffix": false,
  "hinting": true,
  "units_per_em": 1000,
  "ascent": 850,
  "glyphs": [
    {
      "uid": "6a105ad156427b024b633a799e03af7b",
      "css": "ac_unit",
      "code": 59392,
      "src": "material"
    },
    {
      "uid": "19e7b342a5e6bd0cd86de6d6208486a4",
      "css": "leaf",
      "code": 59393,
      "src": "fontawesome"
    },
    {
      "uid": "b1be5d988ae59050d0d074eb2bc69a4d",
      "css": "chair",
      "code": 63168,
      "src": "fontawesome5"
    },
    {
      "uid": "d754679eab2654073eddb7662c987d9b",
      "css": "bath",
      "code": 62157,
      "src": "fontawesome5"
    },
    {
      "uid": "36a1cee80657a9c66e8384dd57bed66c",
      "css": "water",
      "code": 59394,
      "src": "entypo"
    },
    {
      "uid": "e7fd1000ecf06a436538ca1854be4eed",
      "css": "hands_wash",
      "code": 59395,
      "src": "fontawesome5"
    },
    {
      "uid": "58a86ca1cc9ca67846e627cde2750eec",
      "css": "tv",
      "code": 59396,
      "src": "material"
    },
    {
      "uid": "e9f1a495968111eab72aacfdce5a3d9f",
      "css": "plug",
      "code": 62289,
      "src": "octicons"
    },
    {
      "uid": "04ff8d6592fe548b332b27ed87ce397a",
      "css": "box",
      "code": 61831,
      "src": "fontawesome"
    },
    {
      "uid": "d5fb7c2f92b5575ba2e7bc65cf846c19",
      "css": "devices_other",
      "code": 59397,
      "src": "material"
    },
    {
      "uid": "7432077e6a2d6aa19984ca821bb6bbda",
      "css": "bug",
      "code": 61832,
      "src": "fontawesome"
    },
    {
      "uid": "4b5f64a4f1318aaa53a03429122caa50",
      "css": "kitchen",
      "code": 59398,
      "src": "material"
    },
    {
      "uid": "0336743e6145e30672d3cfb0bbccd962",
      "css": "tape",
      "code": 62683,
      "src": "fontawesome5"
    },
    {
      "uid": "5925dc2cd793a72e6bbe4313d6449f12",
      "css": "weekend",
      "code": 59399,
      "src": "material"
    }
  ]
}